Life Expectancy
…
Life Expectancy

    Author

             Dillan Sant, Chase Mathis 

# A tibble: 2,938 × 22
   Country      Year Status    `Life expectan…` `Adult Mortali…` `infant deaths`
   <chr>       <dbl> <chr>                <dbl>            <dbl>           <dbl>
 1 Afghanistan  2015 Developi…             65                263              62
 2 Afghanistan  2014 Developi…             59.9              271              64
 3 Afghanistan  2013 Developi…             59.9              268              66
 4 Afghanistan  2012 Developi…             59.5              272              69
 5 Afghanistan  2011 Developi…             59.2              275              71
 6 Afghanistan  2010 Developi…             58.8              279              74
 7 Afghanistan  2009 Developi…             58.6              281              77
 8 Afghanistan  2008 Developi…             58.1              287              80
 9 Afghanistan  2007 Developi…             57.5              295              82
10 Afghanistan  2006 Developi…             57.3              295              84
# … with 2,928 more rows, and 16 more variables: Alcohol <dbl>,
#   `percentage expenditure` <dbl>, `Hepatitis B` <dbl>, Measles <dbl>,
#   BMI <dbl>, `under-five deaths` <dbl>, Polio <dbl>,
#   `Total expenditure` <dbl>, Diphtheria <dbl>, `HIV/AIDS` <dbl>, GDP <dbl>,
#   Population <dbl>, `thinness  1-19 years` <dbl>, `thinness 5-9 years` <dbl>,
#   `Income composition of resources` <dbl>, Schooling <dbl>
…
